Project 1: Wrangling, Exploration, Visualization
…
1115
HCG17
2.566
0.699
0.645
0
5.1171506
0.9243736
1.7035349

cleandatajoin %>% group_by(name) %>% count()

## # A tibble: 867 x 2
## # Groups:   name [867]
##    name       n
##    <chr>  <int>
##  1 A4GALT     1
##  2 ABCA1      1
##  3 ABCA12     1
##  4 ABCA3      1
##  5 ABCD2      1
##  6 ACHE       1
##  7 ACOT1      1
##  8 ACOT12     1
##  9 ACPT       1
## 10 ACSBG1     1
## #  with 857 more rows
…
##   min(baseMean, na.rm = T)
## 1                0.4416409

cleandatajoin %>% summarize(max(baseMean, na.rm = T))

##   max(baseMean, na.rm = T)
## 1                 18278.06

Sample 1 to baseMean Ratio

cleandatajoin2 <- cleandatajoin %>% mutate(sample1tobaseMeanRatio = (mean(sample1, 
    na.rm = T))/baseMean)
cleandatajoin2 %>% group_by(name) %>% summarize(sample1tobaseMeanRatio)

## # A tibble: 867 x 2
##    name   sample1tobaseMeanRatio
##    <chr>                   <dbl>
##  1 A4GALT                  7.35 
##  2 ABCA1                   0.139
##  3 ABCA12                 90.6  
##  4 ABCA3                   1.38 
##  5 ABCD2                   0.315
##  6 ACHE                  125.   
##  7 ACOT1                   0.872
##  8 ACOT12                211.   
##  9 ACPT                   14.4  
## 10 ACSBG1                  4.76 
## #  with 857 more rows

Avereage Expression of the 3 Myeloma Cell Samples For Each Gene

cleandatajoin1 <- cleandatajoin %>% pivot_longer(6:8, names_to = "sample") %>% 
    group_by(name) %>% filter(detection_call == 1) %>% mutate(SampleMean = mean(value)) %>% 
    arrange(-SampleMean)
cleandatajoin1 %>% group_by(name) %>% summarize(SampleMean)

## # A tibble: 672 x 2
## # Groups:   name [224]
##    name  SampleMean
##    <chr>      <dbl>
##  1 ABCA1       25.7
##  2 ABCA1       25.7
##  3 ABCA1       25.7
##  4 ABCA3      233. 
##  5 ABCA3      233. 
##  6 ABCA3      233. 
##  7 ABCD2      241. 
##  8 ABCD2      241. 
##  9 ABCD2      241. 
## 10 ACOT1       72.7
## #  with 662 more rows

baseMean Signal Across the Genes

# Then I looked to see what the baseMean signal across all
# samples is when the specific gene in question is actually
# expressed
cleandatajoin %>% group_by(name) %>% filter(detection_call == 
    1) %>% arrange(-baseMean)

## # A tibble: 224 x 8
## # Groups:   name [224]
##    name  baseMean log2FoldChange     padj detection_call sample1 sample2 sample3
##    <chr>    <dbl>          <dbl>    <dbl>          <dbl>   <dbl>   <dbl>   <dbl>
##  1 STAT1   18278.         1.35   7.19e- 4              1      89      78      69
##  2 CTSH     9464.         2.48   1.14e-17              1     388     139     125
##  3 MBTP    5364.        -1.10   3.18e- 3              1      82      79      70
##  4 KIF5B    4860.        -0.913  2.99e- 3              1      90      80      71
##  5 KIAA    3775.         0.123  8.35e- 1              1      64       2       2
##  6 AKAP    3719.        -1.33   7.45e- 5              1      93      47      45
##  7 PTPR    3686.        -0.0131 9.70e- 1              1      60       4       6
##  8 LIMD2    3573.        -2.05   4.70e-10              1      41      20      23
##  9 SCRN1    3285.        -1.07   9.77e- 3              1     389     155     134
## 10 GPR15    2496.         3.26   8.89e- 4              1       8      48      46
## #  with 214 more rows
…
log2FoldChange Values Across the Genes

# the log2FoldChange varibale which is a value that indicates
# how much the gene or transcript's expression seems to have
# changed between the comparison and control groups.
cleandatajoin %>% group_by(name) %>% summarize(log2FoldChange) %>% 
    arrange(log2FoldChange)

## # A tibble: 867 x 2
##    name   log2FoldChange
##    <chr>           <dbl>
##  1 CAMK2A         -10.8 
##  2 GRIK3           -8.82
##  3 MRS2P2          -8.46
##  4 CD1D            -8.32
##  5 CYP2A6          -8.00
##  6 NR4A3           -7.96
##  7 MTSS1L          -7.89
##  8 KCNJ13          -7.41
##  9 RGS7            -7.38
## 10 ACSM1           -7.27
## #  with 857 more rows

cleandatajoin %>% group_by(name) %>% summarize(log2FoldChange) %>% 
    arrange(-log2FoldChange)

## # A tibble: 867 x 2
##    name   log2FoldChange
##    <chr>           <dbl>
##  1 CCNA1            7.81
##  2 OLAH             7.23
##  3 TCF24            7.13
##  4 CDH17            6.82
##  5 SORBS2           6.37
##  6 IL32             6.36
##  7 MKX              6.14
##  8 TSHR             6.07
##  9 TERC             5.88
## 10 BEND6            5.83
## #  with 857 more rows
…
